{
  "project_info": {
    "project_id": "tpcalculator",
    "project_number": "565829613443",
    "name": "tpCalculator"
  },
  "client": [
    {
      "client_info": {
        "mobilesdk_app_id": "1:565829613443:android:c51af089870a05c3",
        "client_id": "android:com.ct.tpcalculator",
        "client_type": 1,
        "android_client_info": {
          "package_name": "com.ct.tpcalculator"
        }
      },
      "oauth_client": [],
      "api_key": [],
      "services": {
        "analytics_service": {
          "status": 2,
          "analytics_property": {
            "tracking_id": "UA-74132243-1"
          }
        },
        "cloud_messaging_service": {
          "status": 1,
          "apns_config": []
        },
        "appinvite_service": {
          "status": 1,
          "other_platform_oauth_client": []
        },
        "google_signin_service": {
          "status": 1
        },
        "ads_service": {
          "status": 1
        }
      }
    }
  ],
  "client_info": [],
  "ARTIFACT_VERSION": "1"
}